ssp,publisher,placement,publisher_name,placement_name
google,70892,70911,Topix_DFP Premium (EB),(EB) Topix_Display
google,68253,69017,Evolve Media - DFP (EB),(EB) Evolve_Display
google,70431,70432,zimbio.com (EB),(EB) Livingly_Display
medianet,71066,71087,Hometalk LLC (Media.net),(Media.net) Hometalk_Related1_Display
medianet,71066,71090,Hometalk LLC (Media.net),(Media.net) Hometalk_Med2_Display
google,70574,70584,The Daily Beast (EB),(EB) The Daily Beast_Display
google,68241,68304,Gannett (EB),(EB) Gannett_Display
medianet,71066,71068,Hometalk LLC (Media.net),(Media.net) Hometalk_AdTop_Display
google,70619,70620,"Spine Meda, LLC (EB)",(EB) SpineMedia_Display
google,71528,71529,Meaww World (Meaww.com) (EB),(EB) Meaww_Display
medianet,70759,70828,Cracked (Media.net),(Media.net) Cracked_300x250MobBTF_Display
medianet,70759,70811,Cracked (Media.net),(Media.net) Cracked_Ad3_Display
medianet,71066,71081,Hometalk LLC (Media.net),(Media.net) Hometalk_GalleryTop_Display
google,70064,70092,Boston Globe Media (EB),(EB) Boston Globe_Display
medianet,70757,70758,Media.net (Media.net),(Media.net) Media.net_Default
medianet,71066,71086,Hometalk LLC (Media.net),(Media.net) Hometalk_Related_Display
google,70755,70756,Beliefnet (EB),(EB) Beliefnet_Display
medianet,70759,70807,Cracked (Media.net),(Media.net) Cracked_300x250FlexATF_Display
medianet,70861,70862,Default (Media.Net),Default Placement (Media.Net)
google,70554,70558,"Mediavine, Inc (EB)",(EB) Mediavine_display
google,68252,69020,Newsweek Media Group (EB),(EB) Newsweek_Display
google,68314,68315,PMC - DFP (EB),(EB) Penske_Display
medianet,71066,71088,Hometalk LLC (Media.net),(Media.net) Hometalk_Related2_Display
google,70889,70890,"Homes.com, Inc (EB)",(EB) DominionEnterprises_Display
medianet,70759,70817,Cracked (Media.net),(Media.net) Cracked_Ad9_Display
google,71045,71046,"Spine Media, LLC - 2 (EB)",(EB) Spine Media-2 _Display
amazon,70585,71285,Uproxx-Woven Digital (A9),(A9) Uproxx_uproxx.com
google,71318,71339,The Slate Group New (EB),(EB) SlateGroup_Display
medianet,70759,70826,Cracked (Media.net),(Media.net) Cracked_320x50BTF_Display
medianet,70759,70827,Cracked (Media.net),(Media.net) Cracked_300x250MobATF_Display
google,70226,70269,Valnet Inc (EB),(EB) Valnet_Display
google,69162,69163,Proper Media (EB),(EB) ProperMedia_Display
google,68312,68313,Demand Media - DFP (EB),(EB) LeafGroup_Display
google,69039,69040,"Investopedia, LLC (EB)",(EB) Investopedia_Display
medianet,70759,70812,Cracked (Media.net),(Media.net) Cracked_Ad4_Display
google,68984,68985,Hearst - Consolidated Network (EB),(EB) Hearst_Display
medianet,70757,70782,Media.net (Media.net),(Media.net) Media.net_320x50_Display
google,69042,69206,"Dictionary.com, LLC. (EB)",(EB) Dictionary.com_Display
medianet,71066,71226,Hometalk LLC (Media.net),(Media.net) Hometalk_Default
amazon,70564,70842,"Beliefnet, Inc (A9)",(A9) Beliefnet_Patheos
medianet,70759,70815,Cracked (Media.net),(Media.net) Cracked_Ad7_Display
medianet,70759,70809,Cracked (Media.net),(Media.net) Cracked_Ad1_Display
medianet,70759,70832,Cracked (Media.net),(Media.net) Cracked_728x90FlexATF_Display
medianet,70759,70816,Cracked (Media.net),(Media.net) Cracked_Ad8_Display
google,69928,69929,Future PLC Publishing (EB),(EB) FuturePLC_Display
medianet,70759,70808,Cracked (Media.net),(Media.net) Cracked_300x250FlexBTF_Display
medianet,71066,71085,Hometalk LLC (Media.net),(Media.net) Hometalk_SlideshowPostBoards_Display
google,71390,71391,"Woven Digital, Inc (EB)",(EB) Uproxx_Display
amazon,70585,71284,Uproxx-Woven Digital (A9),(A9) Uproxx_brobible.com
google,70850,70851,Electus Digital (EB),(EB) ConnectedVentures_Display
google,70214,70217,Dotdash (EB),(EB) IAC_Dotdash_Display
medianet,70757,70784,Media.net (Media.net),(Media.net) Media.net_728x90Flex_Display
medianet,71066,71091,Hometalk LLC (Media.net),(Media.net) Hometalk_Med3_Display
medianet,71066,71092,Hometalk LLC (Media.net),(Media.net) Hometalk_SSPRelated_Display
medianet,71066,71082,Hometalk LLC (Media.net),(Media.net) Hometalk_GalleryLast_Display
medianet,70757,70783,Media.net (Media.net),(Media.net) Media.net_728x90_Display
google,70737,70738,Vice Media - Prod Network (EB),(EB) Vice_Display
google,69964,69965,Lifescript - DFP (EB),(EB) Lifescript_Display
google,68250,69016,Salem Web Networks - DFP (EB),(EB) Townhall_Display
medianet,70759,70810,Cracked (Media.net),(Media.net) Cracked_Ad2_Display
medianet,70759,70818,Cracked (Media.net),(Media.net) Cracked_Ad10_Display
google,70873,70874,"Vimeo, Inc (EB)",(EB) Vimeo_Display
medianet,71066,71089,Hometalk LLC (Media.net),(Media.net) Hometalk_Med1_Display
google,70433,70434,Ask Media Group (EB),(EB) IAC_AskMedia_Display
google,70680,70681,Coolmath LLC (EB),(EB) ConstructiveMedia_Display
medianet,70759,70829,Cracked (Media.net),(Media.net) Cracked_300x250MobIntro_Display
medianet,70759,70813,Cracked (Media.net),(Media.net) Cracked_Ad5_Display
google,70294,70542,Concourse Media (EB),(EB) Concourse_display
google,68992,68993,Wikia - DFP (EB),(EB) Wikia_Display
google,70572,70573,The Washington Times - DFP (EB),(EB) WashingtonTimes_Display
google,70962,70963,WB (EB),(EB) WB_Display
medianet,70757,70779,Media.net (Media.net),(Media.net) Media.net_300x250_Display
google,68299,68301,Vox Media (EB),(EB) VoxMedia_Display
amazon,70545,70708,Imgur (A9),(A9) Imgur_Display
google,68309,68310,Bustle (EB),(EB) BDGMedia_Display
medianet,70757,70780,Media.net (Media.net),(Media.net) Media.net_300x250Flex_Display
medianet,70759,70825,Cracked (Media.net),(Media.net) Cracked_320x50ATF_Display
sortable,69004,69022,Snapsort Inc- (sortable),Sortable_Display
medianet,71066,71084,Hometalk LLC (Media.net),(Media.net) Hometalk_SlideshowPostRec_Display
google,70582,70583,Say Media (EB),(EB) Say Media_Display
medianet,71066,71083,Hometalk LLC (Media.net),(Media.net) Hometalk_SlideshowPostAct_Display
google,68986,68987,Whisper (EB),(EB) WhisperText_MobileApp_Display
medianet,70759,70814,Cracked (Media.net),(Media.net) Cracked_Ad6_Display
google,71316,71338,NASDAQ - DFP AMERICAS (EB),(EB) NASDAQ_Display
google,68324,68448,HSW DFP (EB),(EB) Infospace_Display
amazon,70564,70843,"Beliefnet, Inc (A9)",(A9) Beliefnet_Beliefnet
medianet,70759,70760,Cracked (Media.net),(Media.net) Cracked_Default
